[
  "ace",
  "amazing",
  "astonishing",
  "astounding",
  "astute",
  "awesome",
  "badass",
  "beautiful",
  "bedazzling",
  "best",
  "breathtaking",
  "brilliant",
  "charming",
  "classy",
  "cool",
  "craziest",
  "cutest",
  "dandy",
  "dazzling",
  "delightful",
  "divine",
  "doozie",
  "enchanting",
  "epic",
  "excellent",
  "exceptional",
  "exquisite",
  "extraordinary",
  "fabulous",
  "fantastic",
  "fantabulous",
  "fine",
  "finest",
  "flawless",
  "funkadelic",
  "geometric",
  "glorious",
  "gnarly",
  "good",
  "grand",
  "great",
  "groovy",
  "groundbreaking",
  "impeccable",
  "impressive",
  "incredible",
  "kickass",
  "kryptonian",
  "laudable",
  "legendary",
  "lovely",
  "luminous",
  "magnificent",
  "majestic",
  "marvelous",
  "mathematical",
  "neat",
  "outstanding",
  "peachy",
  "perfect",
  "phenomenal",
  "pioneering",
  "polished",
  "posh",
  "praiseworthy",
  "premium",
  "priceless",
  "prime",
  "primo",
  "rad",
  "remarkable",
  "riveting",
  "scrumptious",
  "scrumtrulescent",
  "sensational",
  "sexiest",
  "shining",
  "slick",
  "smashing",
  "solid",
  "spectacular",
  "splendid",
  "splendiferous",
  "stellar",
  "striking",
  "stunning",
  "stupendous",
  "stylish",
  "sublime",
  "super",
  "superb",
  "superior",
  "supreme",
  "sweet",
  "swell",
  "terrific",
  "tiptop",
  "transcendent",
  "tremendous",
  "ultimate",
  "unreal",
  "wicked",
  "wonderful",
  "wondrous"
]
